{
  "main_stat_mod": 4,
  "race": "halfling",
  "weapon_1": {
    "type": "heavy-crossbow",
    "sub_type": "ranged",
    "modifier": 3
  },
  "weapon_2": null,
  "fighting_styles": [
    "archery",
    "defense"
  ],
  "class_levels": {
    "paladin": 11,
    "fighter": 1
  },
  "feats": ["crossbow-expert"],
  "subclasses": ["oath-of-vengeance"],
  "engine": "bg3"
}