{
  "main_stat_mod": 3,
  "race": "halfling",
  "weapon_1": {
    "type": "hand-crossbow",
    "sub_type": "ranged",
    "modifier": 3
  },
  "weapon_2": null,
  "fighting_styles": [
    "archery",
    "defense"
  ],
  "class_levels": {
    "ranger": 5,
    "fighter": 4,
    "rogue": 3
  },
  "feats": ["crossbow-expert", "sharpshooter"],
  "subclasses": ["champion", "gloom-stalker", "thief"],
  "engine": "bg3"
}