{
  "main_stat_mod": 5,
  "race": "halfling",
  "weapon_1": {
    "type": "hand-crossbow",
    "sub_type": "ranged",
    "modifier": 3
  },
  "weapon_2": null,
  "NULL_fighting_styles": [
    "archery"
  ],
  "class_levels": {
    "rogue": 12
  },
  "feats": ["crossbow-expert", "sharpshooter"],
  "subclasses": ["thief"],
  "engine": "bg3"
}