{
  "main_stat_mod": 4,
  "race": "halfling",
  "weapon_1": {
    "type": "hand-crossbow",
    "sub_type": "ranged",
    "modifier": 3
  },
  "weapon_2": null,
  "fighting_styles": [
    "archery"
  ],
  "class_levels": {
    "fighter": 5,
    "rogue": 7
  },
  "feats": ["crossbow-expert"],
  "subclasses": ["champion", "thief"],
  "engine": "bg3"
}