,build,avg,burst,prep,regular,0-cost,Min_AC,Max_AC,+hit,crit_range,AHit%,AMiss%,MH_Atks,B_Atks,power,PW_AC,melee
7,2HS_Ba5_Fi4_Ro3_orc,68.53,85.67,51.4,68.53,31.05,15,27,12,2,61.5%,19.5%,2,2,False,,True
5,2HS_Ba5_Fi4_Ro3_GWM_orc,68.13,84.47,50.68,69.24,31.29,15,27,11,2,43.4%,37.6%,2,2,True,22,True
4,2HS_Ba5_Fi4_Ro3_GWM_hl,67.32,83.45,50.07,68.46,30.79,15,27,11,2,44.74%,35.36%,2,2,True,22,True
6,2HS_Ba5_Fi4_Ro3_hl,67.1,83.87,50.32,67.1,30.25,15,27,12,2,62.55%,17.55%,2,2,False,,True
3,2HA_Ba5_Fi4_Ro3_orc,66.96,83.7,50.22,66.96,30.26,15,27,12,2,61.5%,19.5%,2,2,False,,True
15,2HS_Pa5_Ba4_Fi3,66.33,113.31,34.27,51.4,31.05,15,27,12,2,61.5%,19.5%,2,1,False,,True
16,2HS_Pa5_Ba4_Ro3,64.09,80.42,47.93,63.91,28.73,15,27,12,1,70.75%,19.5%,2,2,False,,True
1,1HR_Ba5_Fi4_Ro3,64.04,79.53,48.51,64.09,29.5,15,27,12,2,61.5%,19.5%,2,2,False,,True
29,2HP_Fi6_Ro4_Ba2_GWM,63.07,78.22,46.93,64.05,57.58,15,27,11,2,43.4%,37.6%,2,2,True,22,True
8,2HS_Ba5_Ro3_Pa2_Fi2,62.9,87.66,43.31,57.74,25.82,15,27,11,1,66.5%,23.75%,2,2,False,,True
13,2HS_Fi8_Ba4_Pa2_GWM,62.22,91.14,37.72,57.8,35.0,15,27,12,2,49.19%,31.81%,2,1,True,22,True
28,2HP_Fi6_Ro4_Ba2,62.06,77.58,46.55,62.06,55.62,15,27,12,2,61.5%,19.5%,2,2,False,,True
17,2HS_Ra5_Ba4_Ro3,59.94,67.97,47.93,63.91,28.73,15,27,12,1,70.75%,19.5%,2,2,False,,True
19,DWR_Fi6_Ro4_Ba2,57.6,71.48,43.68,57.65,51.21,15,27,12,2,61.5%,19.5%,2,2,False,,True
30,1HR_Ba5_Ro4_Fi3,57.6,71.48,43.68,57.65,26.28,15,27,12,2,61.5%,19.5%,2,2,False,,True
11,2HS_Fi6_Ba4_Ro2_GWM,56.99,75.45,37.72,57.8,35.0,15,27,12,2,49.19%,31.81%,2,1,True,22,True
22,2HP_Ba5_Fi4_Ro3,56.24,70.3,42.18,56.24,50.14,15,27,11,2,57.25%,23.75%,2,2,False,,True
53,2LB_Fi11_Wl1_SS,55.9,86.29,40.22,41.19,33.31,15,27,14,2,44.83%,44.67%,3,0,True,23,False
23,2HP_Ba5_Fi4_Ro3_GWM,55.84,69.23,41.54,56.76,50.69,15,27,10,2,39.71%,41.29%,2,2,True,21,True
9,2HS_Ba8_Ro4_GWM,55.83,49.75,49.75,67.97,30.54,15,27,12,1,56.04%,34.21%,2,2,True,23,True
31,1HR_Ba5_Ro5_Fi2,55.83,69.06,42.53,55.89,25.67,15,27,12,1,70.75%,19.5%,2,2,False,,True
10,2HS_Fi11_Wl1_GWM,54.77,81.56,40.78,41.98,34.12,15,27,12,2,42.4%,47.1%,3,0,True,19,True
57,2XB_Fi11_Wl1,54.68,83.8,40.11,40.11,31.34,15,27,14,2,62.6%,26.9%,3,0,False,,False
36,1HX_Fi12_SS,54.39,78.19,42.02,42.95,42.02,15,27,14,2,40.79%,48.71%,3,1,True,25,False
21,DWS_Fi5_Ro3_Ba2_Pa2,53.82,76.61,36.68,48.15,42.05,15,27,11,2,57.25%,23.75%,2,2,False,,True
24,2HP_Fi11_Wl1,53.26,73.74,36.87,49.16,39.36,15,27,12,2,50.0%,40.0%,3,1,False,,True
26,2HP_Fi12_GWM,52.06,72.37,41.35,42.45,41.35,15,27,12,2,36.54%,53.46%,3,1,True,21,True
58,2XB_Fi11_Wl1_SS,51.85,80.23,37.17,38.14,30.6,15,27,13,2,41.6%,47.9%,3,0,True,22,False
34,1HX_Fi11_Wl1,51.72,73.26,35.1,46.8,35.09,15,27,14,2,62.6%,26.9%,3,1,False,,False
43,1HX_Fi8_Ro4_SS,50.89,67.69,42.02,42.95,42.02,15,27,14,2,40.79%,48.71%,2,2,True,25,False
12,2HS_Fi6_Ro4_Ba2_GWM,50.57,75.45,37.72,38.53,35.0,15,27,12,2,49.19%,31.81%,2,0,True,22,True
35,1HX_Fi11_Wl1_SS,50.44,72.21,33.41,45.68,36.07,15,27,13,2,39.58%,49.92%,3,1,True,23,False
27,2HP_Fi12_sentinel,49.2,68.88,39.36,39.36,39.36,15,27,12,2,50.0%,40.0%,3,1,False,,True
59,2XB_Fi12_SS,49.09,75.82,35.32,36.13,35.32,15,27,14,2,42.81%,46.69%,3,0,True,24,False
2,1HR_Ro7_Ba5,48.71,44.16,44.16,57.79,26.93,15,27,12,1,70.75%,19.5%,2,2,False,,True
39,1HX_Fi6_Ro4_Ra2,47.82,61.56,35.1,46.8,35.09,15,27,14,2,62.6%,26.9%,2,2,False,,False
40,1HX_Fi6_Ro5_Wl1,47.82,61.56,35.1,46.8,35.09,15,27,14,2,62.6%,26.9%,2,2,False,,False
41,1HX_Fi8_Ro3_Wl1,47.82,61.56,35.1,46.8,35.09,15,27,14,2,62.6%,26.9%,2,2,False,,False
51,1XB_Fi8_Ro3_Wl1,47.82,61.56,35.1,46.8,35.09,15,27,14,2,62.6%,26.9%,2,2,False,,False
25,2HP_Fi11_Wl1_GWM,47.45,65.1,32.55,44.69,35.65,15,27,11,2,35.38%,54.62%,3,1,True,19,True
45,1HX_Ra5_Fi4_Ro3,47.23,69.66,30.87,41.16,30.14,15,27,13,2,57.75%,31.75%,2,2,False,,False
37,1HX_Fi6_Ro3_Ra3,47.23,69.66,30.87,41.16,30.14,15,27,13,2,57.75%,31.75%,2,2,False,,False
52,1XB_Fi8_Ro3_Wl1_SS,46.72,61.07,33.41,45.68,36.07,15,27,13,2,39.58%,49.92%,2,2,True,23,False
42,1HX_Fi8_Ro3_Wl1_SS,46.72,61.07,33.41,45.68,36.07,15,27,13,2,39.58%,49.92%,2,2,True,23,False
54,2LB_Fi8_Ro3_Wl1_SS,45.84,65.32,32.66,39.54,32.19,15,27,14,2,40.79%,48.71%,2,0,True,25,False
46,1HX_Ra5_Fi4_Ro3_SS,45.2,67.0,28.96,39.66,30.58,15,27,12,2,36.35%,53.15%,2,2,True,22,False
33,1HX_Fi11_Ro1,44.59,63.59,35.09,35.09,35.09,15,27,14,2,62.6%,26.9%,3,1,False,,False
38,1HX_Fi6_Ro4_C1,44.59,63.59,35.09,35.09,35.09,15,27,14,2,62.6%,26.9%,3,1,False,,False
55,2XB_11Fi_1C,42.68,65.36,31.34,31.34,31.34,15,27,14,2,62.6%,26.9%,3,0,False,,False
18,DWR_Fi11_Ro1,42.0,58.8,33.6,33.6,33.6,15,27,12,2,50.0%,40.0%,3,1,False,,True
48,1HX_Ro6_Fi6,41.67,54.82,35.09,35.09,35.09,15,27,14,2,62.6%,26.9%,2,2,False,,False
60,2XB_Fi8_Ro3_Wl1_SS,41.61,60.63,30.32,33.89,26.26,15,27,14,2,62.6%,26.9%,2,0,False,,False
32,1HX_5Pa_4Fi_3Roi,41.61,60.63,30.32,33.89,26.26,15,27,14,2,62.6%,26.9%,2,0,False,,False
14,2HS_Pa12,38.31,54.69,30.12,30.12,27.6,15,27,12,1,57.75%,37.0%,2,0,False,,True
20,DWR_Ro10_Ba2,36.2,31.41,31.41,45.79,40.96,15,27,12,1,70.75%,19.5%,1,2,False,,True
49,1HX_Ro7_Fi5,35.89,47.4,30.14,30.14,30.14,15,27,13,2,57.75%,31.75%,2,2,False,,False
63,2XB_Ro6_Fi6,34.11,49.83,26.26,26.26,26.26,15,27,14,2,62.6%,26.9%,2,0,False,,False
61,2XB_Ra11_Ro1,32.65,46.34,25.8,25.8,20.31,15,27,14,1,67.85%,26.9%,2,0,False,,False
50,1HX_Ro8_Fi4,29.97,37.27,26.32,26.32,26.32,15,27,14,2,62.6%,26.9%,1,2,False,,False
44,1HX_Ra11_Ro1,28.85,36.94,19.85,29.77,22.05,15,27,13,1,63.0%,31.75%,2,1,False,,False
47,1HX_Ro12_SS,26.89,29.52,25.22,25.92,25.22,15,27,12,1,39.58%,55.17%,1,2,True,23,False
56,2XB_11Pa_1Fi,26.86,28.97,25.8,25.8,20.31,15,27,14,1,67.85%,26.9%,2,0,False,,False
0,12Wl,22.39,24.66,21.26,21.26,15.75,15,27,9,1,42.0%,52.75%,3,0,False,,False
62,2XB_Ro12_SS,14.38,14.26,14.26,14.62,14.26,15,27,12,1,37.56%,57.19%,1,0,True,24,False
