{
  "main_stat_mod": 5,
  "race": "half-orc",
  "weapon_1": {
    "type": "rapier",
    "sub_type": "melee",
    "modifier": 3
  },
  "weapon_2": {
    "type": "rapier",
    "sub_type": "melee",
    "modifier": 3
  },
  "fighting_styles": [
    "two-weapon-fighting",
    "defense"
  ],
  "class_levels": {
    "fighter": 11,
    "rogue": 1
  },
  "feats": ["dual-wielder"],
  "subclasses": ["champion"],
  "engine": "bg3"
}