{
  "main_stat_mod": 5,
  "race": "half-orc",
  "weapon_1": {
    "type": "polearm",
    "sub_type": "melee",
    "modifier": 3
  },
  "weapon_2": null,
  "fighting_styles": [
    "great-weapon-fighting"
  ],
  "class_levels": {
    "fighter": 6,
    "rogue": 4,
    "barbarian": 2
  },
  "feats": ["polearm-mastery"],
  "subclasses": ["champion", "thief"],
  "engine": "bg3"
}