{
  "main_stat_mod": 5,
  "race": "halfling",
  "weapon_1": {
    "type": "longbow",
    "sub_type": "ranged",
    "modifier": 3
  },
  "weapon_2": null,
  "fighting_styles": [
    "archery",
    "defense"
  ],
  "action_surge": true,
  "class_levels": {
    "fighter": 11,
    "warlock": 1
  },
  "feats": ["sharpshooter"],
  "subclasses": ["champion", "the-fiend"]
}